<?xml version="1.0" encoding="UTF-8" standalone="no"?>
<!-- Created with Inkscape (http://www.inkscape.org/) -->

<svg
   width="99.704445mm"
   height="100.05201mm"
   viewBox="0 0 99.704445 100.05201"
   version="1.1"
   id="svg1472"
   inkscape:version="1.2.2 (b0a8486541, 2022-12-01)"
   sodipodi:docname="yymacs-logo.svg"
   inkscape:export-filename="yymacs-logo.png"
   inkscape:export-xdpi="254.75294"
   inkscape:export-ydpi="254.75294"
   xmlns:inkscape="http://www.inkscape.org/namespaces/inkscape"
   xmlns:sodipodi="http://sodipodi.sourceforge.net/DTD/sodipodi-0.dtd"
   xmlns:xlink="http://www.w3.org/1999/xlink"
   xmlns="http://www.w3.org/2000/svg"
   xmlns:svg="http://www.w3.org/2000/svg">
  <sodipodi:namedview
     id="namedview1474"
     pagecolor="#ffffff"
     bordercolor="#666666"
     borderopacity="1.0"
     inkscape:pageshadow="2"
     inkscape:pageopacity="0.0"
     inkscape:pagecheckerboard="0"
     inkscape:document-units="mm"
     showgrid="false"
     inkscape:zoom="0.96920987"
     inkscape:cx="261.55326"
     inkscape:cy="180.55945"
     inkscape:window-width="1920"
     inkscape:window-height="1060"
     inkscape:window-x="0"
     inkscape:window-y="20"
     inkscape:window-maximized="1"
     inkscape:current-layer="layer1"
     inkscape:showpageshadow="2"
     inkscape:deskcolor="#d1d1d1"
     showguides="true">
    <inkscape:grid
       type="xygrid"
       id="grid984" />
  </sodipodi:namedview>
  <defs
     id="defs1469">
    <linearGradient
       inkscape:collect="always"
       id="linearGradient1010">
      <stop
         style="stop-color:#1e1e1e;stop-opacity:1;"
         offset="0.07041385"
         id="stop1008" />
      <stop
         style="stop-color:#eaeaea;stop-opacity:0.8896606;"
         offset="0.77607059"
         id="stop4468" />
      <stop
         style="stop-color:#ffffff;stop-opacity:1;"
         offset="1"
         id="stop1006" />
    </linearGradient>
    <linearGradient
       inkscape:collect="always"
       id="linearGradient990">
      <stop
         style="stop-color:#8381c5;stop-opacity:1;"
         offset="0"
         id="stop986" />
      <stop
         style="stop-color:#7e55b3;stop-opacity:0.99607843;"
         offset="0.49999982"
         id="stop1058" />
      <stop
         style="stop-color:#a52ecb;stop-opacity:0.99215686;"
         offset="1"
         id="stop988" />
    </linearGradient>
    <linearGradient
       id="linearGradient4702-3">
      <stop
         style="stop-color:#ff0000;stop-opacity:0.58431375;"
         offset="0"
         id="stop4704-1" />
      <stop
         style="stop-color:#ffcc00;stop-opacity:1;"
         offset="1"
         id="stop4706-8" />
    </linearGradient>
    <linearGradient
       id="linearGradient4696-5">
      <stop
         style="stop-color:#ffb638;stop-opacity:1;"
         offset="0"
         id="stop4698-6" />
      <stop
         style="stop-color:#f0ae26;stop-opacity:1;"
         offset="1"
         id="stop4700-2" />
    </linearGradient>
    <filter
       style="color-interpolation-filters:sRGB;"
       inkscape:label="Greyscale"
       id="filter16657"
       x="0"
       y="0"
       width="1"
       height="1">
      <feColorMatrix
         values="0.470487 0.756618 -0.474389 -0.0487285 0 0.470487 0.756618 -0.474389 -0.0487285 0 0.470487 0.756618 -0.474389 -0.0487285 0 0 0 0 1 0 "
         id="feColorMatrix16655" />
    </filter>
    <linearGradient
       inkscape:collect="always"
       xlink:href="#linearGradient990"
       id="linearGradient992"
       x1="133.04768"
       y1="133.07236"
       x2="34.600143"
       y2="132.67921"
       gradientUnits="userSpaceOnUse" />
    <linearGradient
       inkscape:collect="always"
       xlink:href="#linearGradient1010"
       id="linearGradient1012"
       x1="72.469243"
       y1="130.38751"
       x2="94.905932"
       y2="130.38751"
       gradientUnits="userSpaceOnUse" />
  </defs>
  <g
     inkscape:label="Layer 1"
     inkscape:groupmode="layer"
     id="layer1"
     transform="translate(-33.835374,-80.053628)">
    <rect
       style="opacity:1;fill:url(#linearGradient992);fill-opacity:1;stroke:#00ffff;stroke-width:0.0125861;paint-order:stroke fill markers;stop-color:#000000"
       id="rect1780"
       width="99.691856"
       height="100.03942"
       x="33.841667"
       y="80.059921" />
    <g
       id="g1004"
       transform="translate(0,-0.3078756)"
       style="mix-blend-mode:luminosity;fill:url(#linearGradient1012);fill-opacity:1;stroke:#e5e5e5;stroke-opacity:1">
      <text
         xml:space="preserve"
         style="font-style:oblique;font-variant:normal;font-weight:900;font-stretch:expanded;font-size:35.2778px;line-height:1.25;font-family:'Iosevka Fixed';-inkscape-font-specification:'Iosevka Fixed, Heavy Oblique Expanded';font-variant-ligatures:normal;font-variant-caps:normal;font-variant-numeric:normal;font-variant-east-asian:normal;text-align:justify;letter-spacing:0px;word-spacing:0px;writing-mode:lr-tb;text-anchor:start;fill:url(#linearGradient1012);fill-opacity:1;stroke:#e5e5e5;stroke-width:0.264583;stroke-opacity:1"
         x="74.868141"
         y="148.73196"
         id="text944"><tspan
           sodipodi:role="line"
           id="tspan942"
           style="font-style:oblique;font-variant:normal;font-weight:900;font-stretch:expanded;font-size:35.2778px;font-family:'Iosevka Fixed';-inkscape-font-specification:'Iosevka Fixed, Heavy Oblique Expanded';font-variant-ligatures:normal;font-variant-caps:normal;font-variant-numeric:normal;font-variant-east-asian:normal;fill:url(#linearGradient1012);fill-opacity:1;stroke:#e5e5e5;stroke-width:0.264583;stroke-opacity:1"
           x="74.868141"
           y="148.73196">y</tspan></text>
      <text
         xml:space="preserve"
         style="font-style:oblique;font-variant:normal;font-weight:900;font-stretch:expanded;font-size:35.2778px;line-height:1.25;font-family:'Iosevka Fixed';-inkscape-font-specification:'Iosevka Fixed, Heavy Oblique Expanded';font-variant-ligatures:normal;font-variant-caps:normal;font-variant-numeric:normal;font-variant-east-asian:normal;text-align:justify;letter-spacing:0px;word-spacing:0px;writing-mode:lr-tb;text-anchor:start;fill:url(#linearGradient1012);fill-opacity:1;stroke:#e5e5e5;stroke-width:0.264583;stroke-opacity:1"
         x="-92.507034"
         y="-112.04305"
         id="text998"
         inkscape:transform-center-x="-9.4030471"
         transform="scale(-1)"
         inkscape:transform-center-y="-3.1683594e-06"><tspan
           sodipodi:role="line"
           id="tspan996"
           style="font-style:oblique;font-variant:normal;font-weight:900;font-stretch:expanded;font-size:35.2778px;font-family:'Iosevka Fixed';-inkscape-font-specification:'Iosevka Fixed, Heavy Oblique Expanded';font-variant-ligatures:normal;font-variant-caps:normal;font-variant-numeric:normal;font-variant-east-asian:normal;fill:url(#linearGradient1012);fill-opacity:1;stroke:#e5e5e5;stroke-width:0.264583;stroke-opacity:1"
           x="-92.507034"
           y="-112.04305">y</tspan></text>
    </g>
  </g>
</svg>
